…
Sería lógico pensar que la temperatura variase en función del lugar
donde se mide. Por ello, a continuación se muestra la temperatura media
para cada variable relacionada con la temperatura de nuestro *dataset*
en función de la ciudad.

``` r
datos %>% 
  group_by(Location) %>% 
  summarise(TempMax = mean(MaxTemp), TempMin = mean(MinTemp),
            TempMedia9am = mean(Temp9am), TempMedia3pm = mean(Temp3pm)) %>% 
  arrange()
```

    ## # A tibble: 34 × 5
    ##    Location     TempMax TempMin TempMedia9am TempMedia3pm
    ##    <fct>          <dbl>   <dbl>        <dbl>        <dbl>
    ##  1 Albury          20.7    9.91         13.9         19.3
    ##  2 AliceSprings    29.7   14.0          22.0         28.4
    ##  3 Ballarat        17.5    7.36         11.3         16.0
    ##  4 Bendigo         20.7    8.78         13.6         19.4
    ##  5 Brisbane        26.5   16.4          21.9         24.8
    ##  6 Cairns          29.5   21.2          25.8         27.9
    ##  7 Canberra        20.5    7.46         12.9         18.9
    ##  8 Cobar           25.7   13.1          18.0         24.3
    ##  9 CoffsHarbour    23.8   14.7          20.1         22.2
    ## 10 Darwin          32.5   23.2          27.2         31.1
    ## # … with 24 more rows
…
También es posible que la dirección del viento cambie en función de la
ciudad en la que se mida, dependiendo de la ubicación u orientación de
esta.

``` r
datos %>% 
  group_by(Location) %>% 
  count(WindDir9am4) %>% 
  arrange(Location,desc(n)) %>% 
  filter(row_number() == 1) %>% 
  mutate(n = NULL, PredominatWindDir = WindDir9am4, WindDir9am4 = NULL)
```

    ## # A tibble: 34 × 2
    ## # Groups:   Location [34]
    ##    Location     PredominatWindDir
    ##    <fct>        <chr>            
    ##  1 Albury       E                
    ##  2 AliceSprings E                
    ##  3 Ballarat     N                
    ##  4 Bendigo      S                
    ##  5 Brisbane     S                
    ##  6 Cairns       S                
    ##  7 Canberra     S                
    ##  8 Cobar        E                
    ##  9 CoffsHarbour S                
    ## 10 Darwin       E                
    ## # … with 24 more rows
…
